{
    "name" : "websocket",
    "active" : true,
    "proxy" : {
        "preserve_host" : false,
        "listen_path" : "/websocket/*",
        "upstreams" : {
            "balancing": "roundrobin",
            "targets": [
                {"target": "http://websocket:8000"}
            ]
        },
        "strip_path" : false,
        "append_path" : true,
        "methods" : ["POST" , "GET" , "OPTIONS"]
    },

    "health_check": {
        "url": "http://websocket:8000/websocket/status",
        "timeout": 3
    }
}
